Getting started
…
Several adapters add parsed POSIXct time columns (suffix
_time) using the Europe/Berlin timezone (for example
time in SMARD, start_time in DWD, and
date_time in Tagesschau).

The package separates a core OpenAPI layer from adapter helpers for
specific APIs.

Browse the registry

bunddev_list()
#> # A tibble: 47 × 8
#>    id                    title provider spec_url docs_url auth  rate_limit tags 
#>    <chr>                 <chr> <chr>    <chr>    <chr>    <chr> <chr>      <lis>
#>  1 abfallnavi            Abfa… regio iT https:/… https:/… none  <NA>       <chr>
#>  2 ausbildungssuche      Ausb… Bundesa… https:/… https:/… api_… <NA>       <chr>
#>  3 autobahn              Auto… Autobah… https:/… https:/… none  <NA>       <chr>
#>  4 berufssprachkurssuche Beru… Bundesa… https:/… https:/… api_… <NA>       <chr>
#>  5 bewerberboerse        Bewe… Bundesa… https:/… https:/… api_… <NA>       <chr>
#>  6 bundeshaushalt        Bund… Bundesm… https:/… https:/… none  <NA>       <chr>
#>  7 bundesrat             Bund… Bundesr… https:/… https:/… none  <NA>       <chr>
#>  8 bundestag             Bund… Deutsch… https:/… https:/… none  <NA>       <chr>
#>  9 bundestag_lobbyregis… Bund… Deutsch… https:/… https:/… none  <NA>       <chr>
#> 10 coachingangebote      Coac… Bundesa… https:/… https:/… api_… <NA>       <chr>
#> # ℹ 37 more rows
…
