…
Several adapters add parsed POSIXct time columns (suffix `_time`) using
the Europe/Berlin timezone (for example `time` in SMARD, `start_time` in
DWD, and `date_time` in Tagesschau).

The package separates a core OpenAPI layer from adapter helpers for
specific APIs.

### Browse the registry

``` r
bunddev_list()
#> # A tibble: 41 × 8
#>    id                    title provider spec_url docs_url auth  rate_limit tags 
#>    <chr>                 <chr> <chr>    <chr>    <chr>    <chr> <chr>      <lis>
#>  1 abfallnavi            Abfa… regio iT https:/… https:/… none  NA         <chr>
#>  2 ausbildungssuche      Ausb… Bundesa… https:/… https:/… api_… NA         <chr>
#>  3 autobahn              Auto… Autobah… https:/… https:/… none  NA         <chr>
#>  4 bewerberboerse        Bewe… Bundesa… https:/… https:/… api_… NA         <chr>
#>  5 bundeshaushalt        Bund… Bundesm… https:/… https:/… none  NA         <chr>
#>  6 bundesrat             Bund… Bundesr… https:/… https:/… none  NA         <chr>
#>  7 bundestag             Bund… Deutsch… https:/… https:/… none  NA         <chr>
#>  8 bundestag_lobbyregis… Bund… Deutsch… https:/… https:/… none  NA         <chr>
#>  9 dashboard_deutschland Dash… Statist… https:/… https:/… none  NA         <chr>
#> 10 ddb                   Deut… Stiftun… https:/… https:/… none  NA         <chr>
#> # ℹ 31 more rows
```
…
